^F:\GRAPHICS\SPACE INVADERS\SPACE INVADERS\RELEASE\GAME.OBJ|F:\GRAPHICS\SPACE INVADERS\SPACE INVADERS\RELEASE\GAMEOBJECT.OBJ|F:\GRAPHICS\SPACE INVADERS\SPACE INVADERS\RELEASE\MAIN.OBJ|F:\GRAPHICS\SPACE INVADERS\SPACE INVADERS\RELEASE\RESOURCEMANAGER.OBJ|F:\GRAPHICS\SPACE INVADERS\SPACE INVADERS\RELEASE\SHADER.OBJ|F:\GRAPHICS\SPACE INVADERS\SPACE INVADERS\RELEASE\SPRITERENDERER.OBJ|F:\GRAPHICS\SPACE INVADERS\SPACE INVADERS\RELEASE\TEXTRENDERER.OBJ|F:\GRAPHICS\SPACE INVADERS\SPACE INVADERS\RELEASE\TEXTURE2D.OBJ
/OUT:"F:\GRAPHICS\SPACE INVADERS\RELEASE\SPACE INVADERS.EXE" /NOLOGO /LIBPATH:"F:\GRAPHICS\SPACE INVADERS\\..\EXTERNAL LIBS\IRRKLANG\LIB\WIN32-VISUALSTUDIO" /LIBPATH:"F:\GRAPHICS\SPACE INVADERS\\..\EXTERNAL LIBS\FREETYPE\WIN32" /LIBPATH:"F:\GRAPHICS\SPACE INVADERS\\..\EXTERNAL LIBS\SOIL" /LIBPATH:"F:\GRAPHICS\SPACE INVADERS\\..\EXTERNAL LIBS\GLFW\LIB-VC2015" /LIBPATH:"F:\GRAPHICS\SPACE INVADERS\\..\EXTERNAL LIBS\GLEW\LIB\RELEASE\WIN32" OPENGL32.LIB GLEW32S.LIB GLFW3.LIB GLU32.LIB SOIL.LIB WINMM.LIB FREETYPE.LIB IRRKLANG.LIB KERNEL32.LIB USER32.LIB GDI32.LIB WINSPOOL.LIB COMDLG32.LIB ADVAPI32.LIB SHELL32.LIB OLE32.LIB OLEAUT32.LIB UUID.LIB ODBC32.LIB ODBCCP32.LIB /MANIFEST /MANIFESTUAC:"level='asInvoker' uiAccess='false'" /manifest:embed /DEBUG:FULL /PDB:"F:\GRAPHICS\SPACE INVADERS\RELEASE\SPACE INVADERS.PDB" /OPT:REF /OPT:ICF /LTCG:incremental /TLBID:1 /DYNAMICBASE /NXCOMPAT /IMPLIB:"F:\GRAPHICS\SPACE INVADERS\RELEASE\SPACE INVADERS.LIB" /MACHINE:X86 /SAFESEH RELEASE\GAME.OBJRELEASE\GAMEOBJECT.OBJRELEASE\MAIN.OBJRELEASE\RESOURCEMANAGER.OBJRELEASE\SHADER.OBJRELEASE\SPRITERENDERER.OBJRELEASE\TEXTRENDERER.OBJRELEASE\TEXTURE2D.OBJ
^F:\GRAPHICS\SPACE INVADERS GAME\SPACE INVADERS\SPACE INVADERS\RELEASE\GAME.OBJ|F:\GRAPHICS\SPACE INVADERS GAME\SPACE INVADERS\SPACE INVADERS\RELEASE\GAMEOBJECT.OBJ|F:\GRAPHICS\SPACE INVADERS GAME\SPACE INVADERS\SPACE INVADERS\RELEASE\MAIN.OBJ|F:\GRAPHICS\SPACE INVADERS GAME\SPACE INVADERS\SPACE INVADERS\RELEASE\RESOURCEMANAGER.OBJ|F:\GRAPHICS\SPACE INVADERS GAME\SPACE INVADERS\SPACE INVADERS\RELEASE\SHADER.OBJ|F:\GRAPHICS\SPACE INVADERS GAME\SPACE INVADERS\SPACE INVADERS\RELEASE\SPRITERENDERER.OBJ|F:\GRAPHICS\SPACE INVADERS GAME\SPACE INVADERS\SPACE INVADERS\RELEASE\TEXTRENDERER.OBJ|F:\GRAPHICS\SPACE INVADERS GAME\SPACE INVADERS\SPACE INVADERS\RELEASE\TEXTURE2D.OBJ
/OUT:"F:\GRAPHICS\SPACE INVADERS GAME\SPACE INVADERS\RELEASE\SPACE INVADERS.EXE" /NOLOGO /LIBPATH:"F:\GRAPHICS\SPACE INVADERS GAME\SPACE INVADERS\\..\EXTERNAL LIBS\IRRKLANG\LIB\WIN32-VISUALSTUDIO" /LIBPATH:"F:\GRAPHICS\SPACE INVADERS GAME\SPACE INVADERS\\..\EXTERNAL LIBS\FREETYPE\WIN32" /LIBPATH:"F:\GRAPHICS\SPACE INVADERS GAME\SPACE INVADERS\\..\EXTERNAL LIBS\SOIL" /LIBPATH:"F:\GRAPHICS\SPACE INVADERS GAME\SPACE INVADERS\\..\EXTERNAL LIBS\GLFW\LIB-VC2015" /LIBPATH:"F:\GRAPHICS\SPACE INVADERS GAME\SPACE INVADERS\\..\EXTERNAL LIBS\GLEW\LIB\RELEASE\WIN32" OPENGL32.LIB GLEW32S.LIB GLFW3.LIB GLU32.LIB SOIL.LIB WINMM.LIB FREETYPE.LIB IRRKLANG.LIB KERNEL32.LIB USER32.LIB GDI32.LIB WINSPOOL.LIB COMDLG32.LIB ADVAPI32.LIB SHELL32.LIB OLE32.LIB OLEAUT32.LIB UUID.LIB ODBC32.LIB ODBCCP32.LIB /MANIFEST /MANIFESTUAC:"level='asInvoker' uiAccess='false'" /manifest:embed /DEBUG:FULL /PDB:"F:\GRAPHICS\SPACE INVADERS GAME\SPACE INVADERS\RELEASE\SPACE INVADERS.PDB" /OPT:REF /OPT:ICF /LTCG:incremental /TLBID:1 /DYNAMICBASE /NXCOMPAT /IMPLIB:"F:\GRAPHICS\SPACE INVADERS GAME\SPACE INVADERS\RELEASE\SPACE INVADERS.LIB" /MACHINE:X86 /SAFESEH RELEASE\GAME.OBJRELEASE\GAMEOBJECT.OBJRELEASE\MAIN.OBJRELEASE\RESOURCEMANAGER.OBJRELEASE\SHADER.OBJRELEASE\SPRITERENDERER.OBJRELEASE\TEXTRENDERER.OBJRELEASE\TEXTURE2D.OBJ
