^F:\Graphics\Space Invaders\Space Invaders\Space Invaders.vcxproj
F:\Graphics\Space Invaders\Release\Space Invaders.ipdb
F:\Graphics\Space Invaders\Release\Space Invaders.iobj
^F:\Graphics\Space Invaders Game\Space Invaders\Space Invaders\Space Invaders.vcxproj
F:\Graphics\Space Invaders Game\Space Invaders\Release\Space Invaders.ipdb
F:\Graphics\Space Invaders Game\Space Invaders\Release\Space Invaders.iobj
